cpu/simulation/qsim/cpu.msim.vcd
$comment
	File created using the following command:
		vcd file cpu.msim.vcd -direction
$end
$date
	Thu Sep 19 18:05:34 2024
$end
$version
	ModelSim Version 10.5b
$end
$timescale
	1ps
$end

$scope module counter_vlg_vec_tst $end
$var reg 1 ! clear $end
$var reg 1 " clock $end
$var wire 1 # Q [7] $end
$var wire 1 $ Q [6] $end
$var wire 1 % Q [5] $end
$var wire 1 & Q [4] $end
$var wire 1 ' Q [3] $end
$var wire 1 ( Q [2] $end
$var wire 1 ) Q [1] $end
$var wire 1 * Q [0] $end

$scope module i1 $end
$var wire 1 + gnd $end
$var wire 1 , vcc $end
$var wire 1 - unknown $end
$var tri1 1 . devclrn $end
$var tri1 1 / devpor $end
$var tri1 1 0 devoe $end
$var wire 1 1 Q[7]~output_o $end
$var wire 1 2 Q[6]~output_o $end
$var wire 1 3 Q[5]~output_o $end
$var wire 1 4 Q[4]~output_o $end
$var wire 1 5 Q[3]~output_o $end
$var wire 1 6 Q[2]~output_o $end
$var wire 1 7 Q[1]~output_o $end
$var wire 1 8 Q[0]~output_o $end
$var wire 1 9 clock~input_o $end
$var wire 1 : inst~0_combout $end
$var wire 1 ; clear~input_o $end
$var wire 1 < inst~q $end
$var wire 1 = inst4~0_combout $end
$var wire 1 > inst4~q $end
$var wire 1 ? inst5~0_combout $end
$var wire 1 @ inst5~q $end
$var wire 1 A inst6~0_combout $end
$var wire 1 B inst6~q $end
$var wire 1 C inst7~0_combout $end
$var wire 1 D inst7~q $end
$var wire 1 E inst8~0_combout $end
$var wire 1 F inst8~q $end
$var wire 1 G inst13~combout $end
$var wire 1 H inst9~0_combout $end
$var wire 1 I inst9~q $end
$var wire 1 J inst10~0_combout $end
$var wire 1 K inst10~q $end
$upscope $end
$upscope $end
$enddefinitions $end
#0
$dumpvars
1!
0"
0*
0)
0(
0'
0&
0%
0$
0#
0+
1,
x-
1.
1/
10
01
02
03
04
05
06
07
08
09
1:
1;
0<
0=
0>
0?
0@
0A
0B
0C
0D
0E
0F
0G
0H
0I
0J
0K
$end
#500
1"
19
1<
18
1*
1=
0:
#1000
0"
09
#1500
1"
19
1>
0<
08
17
1)
0*
1:
#2000
0"
09
#2500
1"
19
1<
18
1*
1?
0=
0:
#3000
0"
09
#3500
1"
19
1@
0>
0<
08
07
16
1(
0)
0*
1:
#4000
0"
09
#4500
1"
19
1<
18
1*
1=
0:
#5000
0"
09
#5500
1"
19
1>
0<
08
17
1)
0*
1:
#6000
0"
09
#6500
1"
19
1<
18
1*
1A
0?
0=
0:
#7000
0"
09
#7500
1"
19
1B
0@
0>
0<
08
07
06
15
1'
0(
0)
0*
1:
#8000
0"
09
#8500
1"
19
1<
18
1*
1=
0:
#9000
0"
09
#9500
1"
19
1>
0<
08
17
1)
0*
1:
#10000
0"
09
#10500
1"
19
1<
18
1*
1?
0=
0:
#11000
0"
09
#11500
1"
19
1@
0>
0<
08
07
16
1(
0)
0*
1:
#12000
0"
09
#12500
1"
19
1<
18
1*
1=
0:
#13000
0"
09
#13500
1"
19
1>
0<
08
17
1)
0*
1:
#14000
0"
09
#14500
1"
19
1<
18
1G
1*
1C
0A
0?
0=
0:
#15000
0"
09
#15500
1"
19
1D
0B
0@
0>
0<
08
07
06
05
14
0G
1&
0'
0(
0)
0*
1:
#16000
0"
09
#16500
1"
19
1<
18
1*
1=
0:
#17000
0"
09
#17500
1"
19
1>
0<
08
17
1)
0*
1:
#18000
0"
09
#18500
1"
19
1<
18
1*
1?
0=
0:
#19000
0"
09
#19500
1"
19
1@
0>
0<
08
07
16
1(
0)
0*
1:
#20000
0"
09
#20500
1"
19
1<
18
1*
1=
0:
#21000
0"
09
#21500
1"
19
1>
0<
08
17
1)
0*
1:
#22000
0"
09
#22500
1"
19
1<
18
1*
1A
0?
0=
0:
#23000
0"
09
#23500
1"
19
1B
0@
0>
0<
08
07
06
15
1'
0(
0)
0*
1:
#24000
0"
09
#24500
1"
19
1<
18
1*
1=
0:
#25000
0"
09
#25500
1"
19
1>
0<
08
17
1)
0*
1:
#26000
0"
09
#26500
1"
19
1<
18
1*
1?
0=
0:
#27000
0"
09
#27500
1"
19
1@
0>
0<
08
07
16
1(
0)
0*
1:
#28000
0"
09
#28500
1"
19
1<
18
1*
1=
0:
#29000
0"
09
#29500
1"
19
1>
0<
08
17
1)
0*
1:
#30000
0"
09
#30500
1"
19
1<
18
1G
1*
1E
0C
0A
0?
0=
0:
#31000
0"
09
#31500
1"
19
1F
0D
0B
0@
0>
0<
08
07
06
05
04
13
0G
1%
0&
0'
0(
0)
0*
1:
#32000
0"
09
#32500
1"
19
1<
18
1*
1=
0:
#33000
0"
09
#33500
1"
19
1>
0<
08
17
1)
0*
1:
#34000
0"
09
#34500
1"
19
1<
18
1*
1?
0=
0:
#35000
0"
09
#35500
1"
19
1@
0>
0<
08
07
16
1(
0)
0*
1:
#36000
0"
09
#36500
1"
19
1<
18
1*
1=
0:
#37000
0"
09
#37500
1"
19
1>
0<
08
17
1)
0*
1:
#38000
0"
09
#38500
1"
19
1<
18
1*
1A
0?
0=
0:
#39000
0"
09
#39500
1"
19
1B
0@
0>
0<
08
07
06
15
1'
0(
0)
0*
1:
#40000
0"
09
#40500
1"
19
1<
18
1*
1=
0:
#41000
0"
09
#41500
1"
19
1>
0<
08
17
1)
0*
1:
#42000
0"
09
#42500
1"
19
1<
18
1*
1?
0=
0:
#43000
0"
09
#43500
1"
19
1@
0>
0<
08
07
16
1(
0)
0*
1:
#44000
0"
09
#44500
1"
19
1<
18
1*
1=
0:
#45000
0"
09
#45500
1"
19
1>
0<
08
17
1)
0*
1:
#46000
0"
09
#46500
1"
19
1<
18
1G
1*
1C
0A
0?
0=
0:
#47000
0"
09
#47500
1"
19
1D
0B
0@
0>
0<
08
07
06
05
14
0G
1&
0'
0(
0)
0*
1:
1H
0H
#48000
0"
09
#48500
1"
19
1<
18
1*
1=
0:
#49000
0"
09
#49500
1"
19
1>
0<
08
17
1)
0*
1:
#50000
0"
09
#50500
1"
19
1<
18
1*
1?
0=
0:
#51000
0"
09
#51500
1"
19
1@
0>
0<
08
07
16
1(
0)
0*
1:
#52000
0"
09
#52500
1"
19
1<
18
1*
1=
0:
#53000
0"
09
#53500
1"
19
1>
0<
08
17
1)
0*
1:
#54000
0"
09
#54500
1"
19
1<
18
1*
1A
0?
0=
0:
#55000
0"
09
#55500
1"
19
1B
0@
0>
0<
08
07
06
15
1'
0(
0)
0*
1:
#56000
0"
09
#56500
1"
19
1<
18
1*
1=
0:
#57000
0"
09
#57500
1"
19
1>
0<
08
17
1)
0*
1:
#58000
0"
09
#58500
1"
19
1<
18
1*
1?
0=
0:
#59000
0"
09
#59500
1"
19
1@
0>
0<
08
07
16
1(
0)
0*
1:
#60000
0"
09
#60500
1"
19
1<
18
1*
1=
0:
#61000
0"
09
#61500
1"
19
1>
0<
08
17
1)
0*
1:
#62000
0"
09
#62500
1"
19
1<
18
1G
1*
0E
0C
0A
0?
0=
0:
1H
#63000
0"
09
#63500
1"
19
1I
0F
0D
0B
0@
0>
0<
08
07
06
05
04
03
12
0G
1$
0%
0&
0'
0(
0)
0*
1:
#64000
0"
09
#64500
1"
19
1<
18
1*
1=
0:
#65000
0"
09
#65500
1"
19
1>
0<
08
17
1)
0*
1:
#66000
0"
09
#66500
1"
19
1<
18
1*
1?
0=
0:
#67000
0"
09
#67500
1"
19
1@
0>
0<
08
07
16
1(
0)
0*
1:
#68000
0"
09
#68500
1"
19
1<
18
1*
1=
0:
#69000
0"
09
#69500
1"
19
1>
0<
08
17
1)
0*
1:
#70000
0"
09
#70500
1"
19
1<
18
1*
1A
0?
0=
0:
#71000
0"
09
#71500
1"
19
1B
0@
0>
0<
08
07
06
15
1'
0(
0)
0*
1:
#72000
0"
09
#72500
1"
19
1<
18
1*
1=
0:
#73000
0"
09
#73500
1"
19
1>
0<
08
17
1)
0*
1:
#74000
0"
09
#74500
1"
19
1<
18
1*
1?
0=
0:
#75000
0"
09
#75500
1"
19
1@
0>
0<
08
07
16
1(
0)
0*
1:
#76000
0"
09
#76500
1"
19
1<
18
1*
1=
0:
#77000
0"
09
#77500
1"
19
1>
0<
08
17
1)
0*
1:
#78000
0"
09
#78500
1"
19
1<
18
1G
1*
1C
0A
0?
0=
0:
#79000
0"
09
#79500
1"
19
1D
0B
0@
0>
0<
08
07
06
05
14
0G
1&
0'
0(
0)
0*
1:
#80000
0"
09
#80500
1"
19
1<
18
1*
1=
0:
#81000
0"
09
#81500
1"
19
1>
0<
08
17
1)
0*
1:
#82000
0"
09
#82500
1"
19
1<
18
1*
1?
0=
0:
#83000
0"
09
#83500
1"
19
1@
0>
0<
08
07
16
1(
0)
0*
1:
#84000
0"
09
#84500
1"
19
1<
18
1*
1=
0:
#85000
0"
09
#85500
1"
19
1>
0<
08
17
1)
0*
1:
#86000
0"
09
#86500
1"
19
1<
18
1*
1A
0?
0=
0:
#87000
0"
09
#87500
1"
19
1B
0@
0>
0<
08
07
06
15
1'
0(
0)
0*
1:
#88000
0"
09
#88500
1"
19
1<
18
1*
1=
0:
#89000
0"
09
#89500
1"
19
1>
0<
08
17
1)
0*
1:
#90000
0"
09
#90500
1"
19
1<
18
1*
1?
0=
0:
#91000
0"
09
#91500
1"
19
1@
0>
0<
08
07
16
1(
0)
0*
1:
#92000
0"
09
#92500
1"
19
1<
18
1*
1=
0:
#93000
0"
09
#93500
1"
19
1>
0<
08
17
1)
0*
1:
#94000
0"
09
#94500
1"
19
1<
18
1G
1*
1E
0C
0A
0?
0=
0:
#95000
0"
09
#95500
1"
19
1F
0D
0B
0@
0>
0<
08
07
06
05
04
13
0G
1%
0&
0'
0(
0)
0*
1:
#96000
0"
09
#96500
1"
19
1<
18
1*
1=
0:
#97000
0"
09
#97500
1"
19
1>
0<
08
17
1)
0*
1:
#98000
0"
09
#98500
1"
19
1<
18
1*
1?
0=
0:
#99000
0"
09
#99500
1"
19
1@
0>
0<
08
07
16
1(
0)
0*
1:
#100000
0"
09
#100500
1"
19
1<
18
1*
1=
0:
#101000
0"
09
#101500
1"
19
1>
0<
08
17
1)
0*
1:
#102000
0"
09
#102500
1"
19
1<
18
1*
1A
0?
0=
0:
#103000
0"
09
#103500
1"
19
1B
0@
0>
0<
08
07
06
15
1'
0(
0)
0*
1:
#104000
0"
09
#104500
1"
19
1<
18
1*
1=
0:
#105000
0"
09
#105500
1"
19
1>
0<
08
17
1)
0*
1:
#106000
0"
09
#106500
1"
19
1<
18
1*
1?
0=
0:
#107000
0"
09
#107500
1"
19
1@
0>
0<
08
07
16
1(
0)
0*
1:
#108000
0"
09
#108500
1"
19
1<
18
1*
1=
0:
#109000
0"
09
#109500
1"
19
1>
0<
08
17
1)
0*
1:
#110000
0"
09
#110500
1"
19
1<
18
1G
1*
1C
0A
0?
0=
0:
#111000
0"
09
#111500
1"
19
1D
0B
0@
0>
0<
08
07
06
05
14
0G
1&
0'
0(
0)
0*
1:
1J
0H
0J
1H
#112000
0"
09
#112500
1"
19
1<
18
1*
1=
0:
#113000
0"
09
#113500
1"
19
1>
0<
08
17
1)
0*
1:
#114000
0"
09
#114500
1"
19
1<
18
1*
1?
0=
0:
#115000
0"
09
#115500
1"
19
1@
0>
0<
08
07
16
1(
0)
0*
1:
#116000
0"
09
#116500
1"
19
1<
18
1*
1=
0:
#117000
0"
09
#117500
1"
19
1>
0<
08
17
1)
0*
1:
#118000
0"
09
#118500
1"
19
1<
18
1*
1A
0?
0=
0:
#119000
0"
09
#119500
1"
19
1B
0@
0>
0<
08
07
06
15
1'
0(
0)
0*
1:
#120000
0"
09
#120500
1"
19
1<
18
1*
1=
0:
#121000
0"
09
#121500
1"
19
1>
0<
08
17
1)
0*
1:
#122000
0"
09
#122500
1"
19
1<
18
1*
1?
0=
0:
#123000
0"
09
#123500
1"
19
1@
0>
0<
08
07
16
1(
0)
0*
1:
#124000
0"
09
#124500
1"
19
1<
18
1*
1=
0:
#125000
0"
09
#125500
1"
19
1>
0<
08
17
1)
0*
1:
#126000
0"
09
#126500
1"
19
1<
18
1G
1*
0E
0C
0A
0?
0=
0:
1J
0H
#127000
0"
09
#127500
1"
19
1K
0I
0F
0D
0B
0@
0>
0<
08
07
06
05
04
03
02
11
0G
1#
0$
0%
0&
0'
0(
0)
0*
1:
#128000
0"
09
#128500
1"
19
1<
18
1*
1=
0:
#129000
0"
09
#129500
1"
19
1>
0<
08
17
1)
0*
1:
#130000
0"
09
#130500
1"
19
1<
18
1*
1?
0=
0:
#131000
0"
09
#131500
1"
19
1@
0>
0<
08
07
16
1(
0)
0*
1:
#132000
0"
09
#132500
1"
19
1<
18
1*
1=
0:
#133000
0"
09
#133500
1"
19
1>
0<
08
17
1)
0*
1:
#134000
0"
09
#134500
1"
19
1<
18
1*
1A
0?
0=
0:
#135000
0"
09
#135500
1"
19
1B
0@
0>
0<
08
07
06
15
1'
0(
0)
0*
1:
#136000
0"
09
#136500
1"
19
1<
18
1*
1=
0:
#137000
0"
09
#137500
1"
19
1>
0<
08
17
1)
0*
1:
#138000
0"
09
#138500
1"
19
1<
18
1*
1?
0=
0:
#139000
0"
09
#139500
1"
19
1@
0>
0<
08
07
16
1(
0)
0*
1:
#140000
0"
09
#140500
1"
19
1<
18
1*
1=
0:
#141000
0"
09
#141500
1"
19
1>
0<
08
17
1)
0*
1:
#142000
0"
09
#142500
1"
19
1<
18
1G
1*
1C
0A
0?
0=
0:
#143000
0"
09
#143500
1"
19
1D
0B
0@
0>
0<
08
07
06
05
14
0G
1&
0'
0(
0)
0*
1:
#144000
0"
09
#144500
1"
19
1<
18
1*
1=
0:
#145000
0"
09
#145500
1"
19
1>
0<
08
17
1)
0*
1:
#146000
0"
09
#146500
1"
19
1<
18
1*
1?
0=
0:
#147000
0"
09
#147500
1"
19
1@
0>
0<
08
07
16
1(
0)
0*
1:
#148000
0"
09
#148500
1"
19
1<
18
1*
1=
0:
#149000
0"
09
#149500
1"
19
1>
0<
08
17
1)
0*
1:
#150000
0"
09
#150500
1"
19
1<
18
1*
1A
0?
0=
0:
#151000
0"
09
#151500
1"
19
1B
0@
0>
0<
08
07
06
15
1'
0(
0)
0*
1:
#152000
0"
09
#152500
1"
19
1<
18
1*
1=
0:
#153000
0"
09
#153500
1"
19
1>
0<
08
17
1)
0*
1:
#154000
0"
09
#154500
1"
19
1<
18
1*
1?
0=
0:
#155000
0"
09
#155500
1"
19
1@
0>
0<
08
07
16
1(
0)
0*
1:
#156000
0"
09
#156500
1"
19
1<
18
1*
1=
0:
#157000
0"
09
#157500
1"
19
1>
0<
08
17
1)
0*
1:
#158000
0"
09
#158500
1"
19
1<
18
1G
1*
1E
0C
0A
0?
0=
0:
#159000
0"
09
#159500
1"
19
1F
0D
0B
0@
0>
0<
08
07
06
05
04
13
0G
1%
0&
0'
0(
0)
0*
1:
#160000
0"
09
#160500
1"
19
1<
18
1*
1=
0:
#161000
0"
09
#161500
1"
19
1>
0<
08
17
1)
0*
1:
#162000
0"
09
#162500
1"
19
1<
18
1*
1?
0=
0:
#163000
0"
09
#163500
1"
19
1@
0>
0<
08
07
16
1(
0)
0*
1:
#164000
0"
09
#164500
1"
19
1<
18
1*
1=
0:
#165000
0"
09
#165500
1"
19
1>
0<
08
17
1)
0*
1:
#166000
0"
09
#166500
1"
19
1<
18
1*
1A
0?
0=
0:
#167000
0"
09
#167500
1"
19
1B
0@
0>
0<
08
07
06
15
1'
0(
0)
0*
1:
#168000
0"
09
#168500
1"
19
1<
18
1*
1=
0:
#169000
0"
09
#169500
1"
19
1>
0<
08
17
1)
0*
1:
#170000
0"
09
#170500
1"
19
1<
18
1*
1?
0=
0:
#171000
0"
09
#171500
1"
19
1@
0>
0<
08
07
16
1(
0)
0*
1:
#172000
0"
09
#172500
1"
19
1<
18
1*
1=
0:
#173000
0"
09
#173500
1"
19
1>
0<
08
17
1)
0*
1:
#174000
0"
09
#174500
1"
19
1<
18
1G
1*
1C
0A
0?
0=
0:
#175000
0"
09
#175500
1"
19
1D
0B
0@
0>
0<
08
07
06
05
14
0G
1&
0'
0(
0)
0*
1:
1H
0H
#176000
0"
09
#176500
1"
19
1<
18
1*
1=
0:
#177000
0"
09
#177500
1"
19
1>
0<
08
17
1)
0*
1:
#178000
0"
09
#178500
1"
19
1<
18
1*
1?
0=
0:
#179000
0"
09
#179500
1"
19
1@
0>
0<
08
07
16
1(
0)
0*
1:
#180000
0"
09
#180500
1"
19
1<
18
1*
1=
0:
#181000
0"
09
#181500
1"
19
1>
0<
08
17
1)
0*
1:
#182000
0"
09
#182500
1"
19
1<
18
1*
1A
0?
0=
0:
#183000
0"
09
#183500
1"
19
1B
0@
0>
0<
08
07
06
15
1'
0(
0)
0*
1:
#184000
0"
09
#184500
1"
19
1<
18
1*
1=
0:
#185000
0"
09
#185500
1"
19
1>
0<
08
17
1)
0*
1:
#186000
0"
09
#186500
1"
19
1<
18
1*
1?
0=
0:
#187000
0"
09
#187500
1"
19
1@
0>
0<
08
07
16
1(
0)
0*
1:
#188000
0"
09
#188500
1"
19
1<
18
1*
1=
0:
#189000
0"
09
#189500
1"
19
1>
0<
08
17
1)
0*
1:
#190000
0"
09
#190500
1"
19
1<
18
1G
1*
0E
0C
0A
0?
0=
0:
1H
#191000
0"
09
#191500
1"
19
1I
0F
0D
0B
0@
0>
0<
08
07
06
05
04
03
12
0G
1$
0%
0&
0'
0(
0)
0*
1:
#192000
0"
09
#192500
1"
19
1<
18
1*
1=
0:
#193000
0"
09
#193500
1"
19
1>
0<
08
17
1)
0*
1:
#194000
0"
09
#194500
1"
19
1<
18
1*
1?
0=
0:
#195000
0"
09
#195500
1"
19
1@
0>
0<
08
07
16
1(
0)
0*
1:
#196000
0"
09
#196500
1"
19
1<
18
1*
1=
0:
#197000
0"
09
#197500
1"
19
1>
0<
08
17
1)
0*
1:
#198000
0"
09
#198500
1"
19
1<
18
1*
1A
0?
0=
0:
#199000
0"
09
#199500
1"
19
1B
0@
0>
0<
08
07
06
15
1'
0(
0)
0*
1:
#200000
0"
09
#200500
1"
19
1<
18
1*
1=
0:
#201000
0"
09
#201500
1"
19
1>
0<
08
17
1)
0*
1:
#202000
0"
09
#202500
1"
19
1<
18
1*
1?
0=
0:
#203000
0"
09
#203500
1"
19
1@
0>
0<
08
07
16
1(
0)
0*
1:
#204000
0"
09
#204500
1"
19
1<
18
1*
1=
0:
#205000
0"
09
#205500
1"
19
1>
0<
08
17
1)
0*
1:
#206000
0"
09
#206500
1"
19
1<
18
1G
1*
1C
0A
0?
0=
0:
#207000
0"
09
#207500
1"
19
1D
0B
0@
0>
0<
08
07
06
05
14
0G
1&
0'
0(
0)
0*
1:
#208000
0"
09
#208500
1"
19
1<
18
1*
1=
0:
#209000
0"
09
#209500
1"
19
1>
0<
08
17
1)
0*
1:
#210000
0"
09
#210500
1"
19
1<
18
1*
1?
0=
0:
#211000
0"
09
#211500
1"
19
1@
0>
0<
08
07
16
1(
0)
0*
1:
#212000
0"
09
#212500
1"
19
1<
18
1*
1=
0:
#213000
0"
09
#213500
1"
19
1>
0<
08
17
1)
0*
1:
#214000
0"
09
#214500
1"
19
1<
18
1*
1A
0?
0=
0:
#215000
0"
09
#215500
1"
19
1B
0@
0>
0<
08
07
06
15
1'
0(
0)
0*
1:
#216000
0"
09
#216500
1"
19
1<
18
1*
1=
0:
#217000
0"
09
#217500
1"
19
1>
0<
08
17
1)
0*
1:
#218000
0"
09
#218500
1"
19
1<
18
1*
1?
0=
0:
#219000
0"
09
#219500
1"
19
1@
0>
0<
08
07
16
1(
0)
0*
1:
#220000
0"
09
#220500
1"
19
1<
18
1*
1=
0:
#221000
0"
09
#221500
1"
19
1>
0<
08
17
1)
0*
1:
#222000
0"
09
#222500
1"
19
1<
18
1G
1*
1E
0C
0A
0?
0=
0:
#223000
0"
09
#223500
1"
19
1F
0D
0B
0@
0>
0<
08
07
06
05
04
13
0G
1%
0&
0'
0(
0)
0*
1:
#224000
0"
09
#224500
1"
19
1<
18
1*
1=
0:
#225000
0"
09
#225500
1"
19
1>
0<
08
17
1)
0*
1:
#226000
0"
09
#226500
1"
19
1<
18
1*
1?
0=
0:
#227000
0"
09
#227500
1"
19
1@
0>
0<
08
07
16
1(
0)
0*
1:
#228000
0"
09
#228500
1"
19
1<
18
1*
1=
0:
#229000
0"
09
#229500
1"
19
1>
0<
08
17
1)
0*
1:
#230000
0"
09
#230500
1"
19
1<
18
1*
1A
0?
0=
0:
#231000
0"
09
#231500
1"
19
1B
0@
0>
0<
08
07
06
15
1'
0(
0)
0*
1:
#232000
0"
09
#232500
1"
19
1<
18
1*
1=
0:
#233000
0"
09
#233500
1"
19
1>
0<
08
17
1)
0*
1:
#234000
0"
09
#234500
1"
19
1<
18
1*
1?
0=
0:
#235000
0"
09
#235500
1"
19
1@
0>
0<
08
07
16
1(
0)
0*
1:
#236000
0"
09
#236500
1"
19
1<
18
1*
1=
0:
#237000
0"
09
#237500
1"
19
1>
0<
08
17
1)
0*
1:
#238000
0"
09
#238500
1"
19
1<
18
1G
1*
1C
0A
0?
0=
0:
#239000
0"
09
#239500
1"
19
1D
0B
0@
0>
0<
08
07
06
05
14
0G
1&
0'
0(
0)
0*
1:
0J
0H
1J
1H
#240000
0"
09
#240500
1"
19
1<
18
1*
1=
0:
#241000
0"
09
#241500
1"
19
1>
0<
08
17
1)
0*
1:
#242000
0"
09
#242500
1"
19
1<
18
1*
1?
0=
0:
#243000
0"
09
#243500
1"
19
1@
0>
0<
08
07
16
1(
0)
0*
1:
#244000
0"
09
#244500
1"
19
1<
18
1*
1=
0:
#245000
0"
09
#245500
1"
19
1>
0<
08
17
1)
0*
1:
#246000
0"
09
#246500
1"
19
1<
18
1*
1A
0?
0=
0:
#247000
0"
09
#247500
1"
19
1B
0@
0>
0<
08
07
06
15
1'
0(
0)
0*
1:
#248000
0"
09
#248500
1"
19
1<
18
1*
1=
0:
#249000
0"
09
#249500
1"
19
1>
0<
08
17
1)
0*
1:
#250000
0"
09
#250500
1"
19
1<
18
1*
1?
0=
0:
#251000
0"
09
#251500
1"
19
1@
0>
0<
08
07
16
1(
0)
0*
1:
#252000
0"
09
#252500
1"
19
1<
18
1*
1=
0:
#253000
0"
09
#253500
1"
19
1>
0<
08
17
1)
0*
1:
#254000
0"
09
#254500
1"
19
1<
18
1G
1*
0E
0C
0A
0?
0=
0:
0J
0H
#255000
0"
09
#255500
1"
19
0K
0I
0F
0D
0B
0@
0>
0<
08
07
06
05
04
03
02
01
0G
0#
0$
0%
0&
0'
0(
0)
0*
1:
